{
  "@class": "cz.cuni.mff.d3s.been.model.td.JavaTaskDescriptor",
  "name": "server task",
  "logLevel": "INFO",
  "timeoutSeconds": 120,
  "javaConfig": {
    "mainClass": "com.example.been.ServerTask"
  }
}
